<svg id="FIRST_SCREEN" data-name="FIRST SCREEN" xmlns="http://www.w3.org/2000/svg" width="114" height="124" viewBox="0 0 114 124">
  <metadata><?xpacket begin="﻿" id="W5M0MpCehiHzreSzNTczkc9d"?>
<x:xmpmeta xmlns:x="adobe:ns:meta/" x:xmptk="Adobe XMP Core 5.6-c138 79.159824, 2016/09/14-01:09:01        ">
   <rdf:RDF xmlns:rdf="http://www.w3.org/1999/02/22-rdf-syntax-ns#">
      <rdf:Description rdf:about=""/>
   </rdf:RDF>
</x:xmpmeta>
                                                                                                    
                                                                                                    
                                                                                                    
                                                                                                    
                                                                                                    
                                                                                                    
                                                                                                    
                                                                                                    
                                                                                                    
                                                                                                    
                                                                                                    
                                                                                                    
                                                                                                    
                                                                                                    
                                                                                                    
                                                                                                    
                                                                                                    
                                                                                                    
                                                                                                    
                                                                                                    
                           
<?xpacket end="w"?></metadata>
<defs>
    <style>
      .cls-1 {
        fill: #f99;
      }

      .cls-2 {
        fill: #fc9;
      }

      .cls-3 {
        fill: #cfc;
      }

      .cls-4 {
        fill: #c9f;
      }

      .cls-13, .cls-14, .cls-15, .cls-16, .cls-4 {
        opacity: 0.5;
      }

      .cls-10, .cls-11, .cls-12, .cls-5, .cls-6, .cls-7, .cls-8, .cls-9 {
        fill: none;
      }

      .cls-11, .cls-5, .cls-8 {
        stroke: #ff0;
      }

      .cls-5 {
        stroke-width: 40px;
      }

      .cls-5, .cls-7, .cls-8 {
        opacity: 0.3;
      }

      .cls-6 {
        stroke: blue;
      }

      .cls-10, .cls-11, .cls-12, .cls-6, .cls-7, .cls-8, .cls-9 {
        stroke-width: 31.35px;
      }

      .cls-10, .cls-11, .cls-12, .cls-6, .cls-9 {
        opacity: 0.2;
      }

      .cls-7 {
        stroke: aqua;
      }

      .cls-9 {
        stroke: lime;
      }

      .cls-10 {
        stroke: #fff200;
      }

      .cls-12 {
        stroke: #4933f2;
      }

      .cls-13 {
        fill: #9cf;
      }

      .cls-13, .cls-14, .cls-15, .cls-16 {
        fill-rule: evenodd;
      }

      .cls-14 {
        fill: #ed96c2;
      }

      .cls-15 {
        fill: #fc6;
      }

      .cls-16 {
        fill: #9cc;
      }

      .cls-17 {
        fill: #333;
      }

      .cls-18 {
        fill: #666;
      }

      .cls-19 {
        fill: #303030;
      }
    </style>
  </defs>
  <g id="Forme_geometriche" data-name="Forme geometriche">
    <g id="circles">
      <circle id="Ellisse_2" data-name="Ellisse 2" class="cls-1" cx="949" cy="-27" r="45"/>
      <circle id="Ellisse_1_copia" data-name="Ellisse 1 copia" class="cls-2" cx="919" cy="-672" r="26"/>
      <circle id="Ellisse_1" data-name="Ellisse 1" class="cls-3" cx="20" cy="-509" r="50"/>
      <circle id="Ellisse_1_copia_2" data-name="Ellisse 1 copia 2" class="cls-4" cx="597" cy="-802" r="30"/>
    </g>
    <g id="design_element_" data-name="design element ">
      <circle class="cls-5" cx="66" cy="-3063" r="104"/>
      <circle id="Ellipse_2_copy_7" data-name="Ellipse 2 copy 7" class="cls-6" cx="979" cy="-2403" r="66"/>
      <circle id="Ellipse_2_copy_3" data-name="Ellipse 2 copy 3" class="cls-7" cx="-389.5" cy="-2149.5" r="64.5"/>
      <circle id="Ellipse_2_copy_5" data-name="Ellipse 2 copy 5" class="cls-8" cx="892.5" cy="-2055.5" r="64.5"/>
      <circle id="Ellipse_2_copy_2" data-name="Ellipse 2 copy 2" class="cls-9" cx="-365.5" cy="-2838.5" r="74.5"/>
      <circle id="Ellipse_2_copy_16" data-name="Ellipse 2 copy 16" class="cls-6" cx="1059.5" cy="-447.5" r="74.5"/>
      <circle id="Ellipse_2_copy_10" data-name="Ellipse 2 copy 10" class="cls-10" cx="-379.5" cy="-77.5" r="74.5"/>
      <circle id="Ellipse_2_copy_11" data-name="Ellipse 2 copy 11" class="cls-6" cx="1124.5" cy="627.5" r="74.5"/>
      <circle id="Ellipse_2_copy_12" data-name="Ellipse 2 copy 12" class="cls-11" cx="-399.5" cy="588.5" r="74.5"/>
      <circle id="Ellipse_2_copy_17" data-name="Ellipse 2 copy 17" class="cls-11" cx="-399.5" cy="1913.5" r="74.5"/>
      <circle id="Ellipse_2_copy_18" data-name="Ellipse 2 copy 18" class="cls-12" cx="949.5" cy="1775.5" r="74.5"/>
      <circle id="Ellipse_2_copy_14" data-name="Ellipse 2 copy 14" class="cls-6" cx="-393.5" cy="1365.5" r="74.5"/>
      <circle id="Ellipse_2_copy_8" data-name="Ellipse 2 copy 8" class="cls-8" cx="-365.5" cy="-576.5" r="64.5"/>
    </g>
    <g id="rettangoli">
      <path id="Rettangolo_3" data-name="Rettangolo 3" class="cls-13" d="M0.012,42.284L75.2,4.838l38.784,77.877L38.8,120.161Z"/>
      <path id="Rettangolo_1" data-name="Rettangolo 1" class="cls-14" d="M653.165-640.309l122.909,58.218-8.989,18.978L644.176-621.331Z"/>
      <path id="Rettangolo_2" data-name="Rettangolo 2" class="cls-15" d="M491.2-545.348L550.349-511.8,516.8-452.652,457.651-486.2Z"/>
      <path id="Rettangolo_2_copia" data-name="Rettangolo 2 copia" class="cls-16" d="M106-824.2l33.2-7.793L147-798.8,113.8-791Z"/>
      <path id="Poligono_1" data-name="Poligono 1" class="cls-13" d="M1048.63-741.828l-90.708-33.883,74.7-61.61Z"/>
    </g>
  </g>
  <g id="Menu">
    <g id="Cart">
      <rect id="Rettangolo_arrotondato_1" data-name="Rettangolo arrotondato 1" class="cls-17" x="913" y="-878" width="10" height="2" rx="1" ry="1"/>
    </g>
    <g id="Language">
      <rect id="Divider" class="cls-18" x="965" y="-888" width="1" height="28"/>
      <rect id="Rettangolo_4" data-name="Rettangolo 4" class="cls-19" x="940" y="-858" width="79" height="116"/>
    </g>
  </g>
</svg>
