<svg id="FIRST_SCREEN" data-name="FIRST SCREEN" xmlns="http://www.w3.org/2000/svg" width="64" height="64" viewBox="0 0 64 64">
  <metadata><?xpacket begin="﻿" id="W5M0MpCehiHzreSzNTczkc9d"?>
<x:xmpmeta xmlns:x="adobe:ns:meta/" x:xmptk="Adobe XMP Core 5.6-c138 79.159824, 2016/09/14-01:09:01        ">
   <rdf:RDF xmlns:rdf="http://www.w3.org/1999/02/22-rdf-syntax-ns#">
      <rdf:Description rdf:about=""/>
   </rdf:RDF>
</x:xmpmeta>
                                                                                                    
                                                                                                    
                                                                                                    
                                                                                                    
                                                                                                    
                                                                                                    
                                                                                                    
                                                                                                    
                                                                                                    
                                                                                                    
                                                                                                    
                                                                                                    
                                                                                                    
                                                                                                    
                                                                                                    
                                                                                                    
                                                                                                    
                                                                                                    
                                                                                                    
                                                                                                    
                           
<?xpacket end="w"?></metadata>
<defs>
    <style>
      .cls-1 {
        fill: #f99;
      }

      .cls-2 {
        fill: #fc9;
      }

      .cls-3 {
        fill: #cfc;
      }

      .cls-4 {
        fill: #c9f;
      }

      .cls-13, .cls-14, .cls-15, .cls-16, .cls-4 {
        opacity: 0.5;
      }

      .cls-10, .cls-11, .cls-12, .cls-5, .cls-6, .cls-7, .cls-8, .cls-9 {
        fill: none;
      }

      .cls-11, .cls-5, .cls-8 {
        stroke: #ff0;
      }

      .cls-5 {
        stroke-width: 40px;
      }

      .cls-5, .cls-7, .cls-8 {
        opacity: 0.3;
      }

      .cls-6 {
        stroke: blue;
      }

      .cls-10, .cls-11, .cls-12, .cls-6, .cls-7, .cls-8, .cls-9 {
        stroke-width: 31.35px;
      }

      .cls-10, .cls-11, .cls-12, .cls-6, .cls-9 {
        opacity: 0.2;
      }

      .cls-7 {
        stroke: aqua;
      }

      .cls-9 {
        stroke: lime;
      }

      .cls-10 {
        stroke: #fff200;
      }

      .cls-12 {
        stroke: #4933f2;
      }

      .cls-13 {
        fill: #9cf;
      }

      .cls-13, .cls-14, .cls-15, .cls-16 {
        fill-rule: evenodd;
      }

      .cls-14 {
        fill: #ed96c2;
      }

      .cls-15 {
        fill: #fc6;
      }

      .cls-16 {
        fill: #9cc;
      }

      .cls-17 {
        fill: #333;
      }

      .cls-18 {
        fill: #666;
      }

      .cls-19 {
        fill: #303030;
      }
    </style>
  </defs>
  <g id="Forme_geometriche" data-name="Forme geometriche">
    <g id="circles">
      <circle id="Ellisse_2" data-name="Ellisse 2" class="cls-1" cx="384" cy="807" r="45"/>
      <circle id="Ellisse_1_copia" data-name="Ellisse 1 copia" class="cls-2" cx="354" cy="162" r="26"/>
      <circle id="Ellisse_1" data-name="Ellisse 1" class="cls-3" cx="-545" cy="325" r="50"/>
      <circle id="Ellisse_1_copia_2" data-name="Ellisse 1 copia 2" class="cls-4" cx="32" cy="32" r="30"/>
    </g>
    <g id="design_element_" data-name="design element ">
      <circle class="cls-5" cx="-499" cy="-2229" r="104"/>
      <circle id="Ellipse_2_copy_7" data-name="Ellipse 2 copy 7" class="cls-6" cx="414" cy="-1569" r="66"/>
      <circle id="Ellipse_2_copy_3" data-name="Ellipse 2 copy 3" class="cls-7" cx="-954.5" cy="-1315.5" r="64.5"/>
      <circle id="Ellipse_2_copy_5" data-name="Ellipse 2 copy 5" class="cls-8" cx="327.5" cy="-1221.5" r="64.5"/>
      <circle id="Ellipse_2_copy_2" data-name="Ellipse 2 copy 2" class="cls-9" cx="-930.5" cy="-2004.5" r="74.5"/>
      <circle id="Ellipse_2_copy_16" data-name="Ellipse 2 copy 16" class="cls-6" cx="494.5" cy="386.5" r="74.5"/>
      <circle id="Ellipse_2_copy_10" data-name="Ellipse 2 copy 10" class="cls-10" cx="-944.5" cy="756.5" r="74.5"/>
      <circle id="Ellipse_2_copy_11" data-name="Ellipse 2 copy 11" class="cls-6" cx="559.5" cy="1461.5" r="74.5"/>
      <circle id="Ellipse_2_copy_12" data-name="Ellipse 2 copy 12" class="cls-11" cx="-964.5" cy="1422.5" r="74.5"/>
      <circle id="Ellipse_2_copy_17" data-name="Ellipse 2 copy 17" class="cls-11" cx="-964.5" cy="2747.5" r="74.5"/>
      <circle id="Ellipse_2_copy_18" data-name="Ellipse 2 copy 18" class="cls-12" cx="384.5" cy="2609.5" r="74.5"/>
      <circle id="Ellipse_2_copy_14" data-name="Ellipse 2 copy 14" class="cls-6" cx="-958.5" cy="2199.5" r="74.5"/>
      <circle id="Ellipse_2_copy_8" data-name="Ellipse 2 copy 8" class="cls-8" cx="-930.5" cy="257.5" r="64.5"/>
    </g>
    <g id="rettangoli">
      <path id="Rettangolo_3" data-name="Rettangolo 3" class="cls-13" d="M-564.988,876.284l75.192-37.446,38.784,77.878L-526.2,954.161Z"/>
      <path id="Rettangolo_1" data-name="Rettangolo 1" class="cls-14" d="M88.166,193.691l122.909,58.218-8.989,18.978L79.176,212.669Z"/>
      <path id="Rettangolo_2" data-name="Rettangolo 2" class="cls-15" d="M-73.8,288.652L-14.651,322.2-48.2,381.348-107.349,347.8Z"/>
      <path id="Rettangolo_2_copia" data-name="Rettangolo 2 copia" class="cls-16" d="M-459,9.8L-425.795,2-418,35.2-451.2,43Z"/>
      <path id="Poligono_1" data-name="Poligono 1" class="cls-13" d="M483.625,92.172l-90.7-33.882,74.695-61.61Z"/>
    </g>
  </g>
  <g id="Menu">
    <g id="Cart">
      <rect id="Rettangolo_arrotondato_1" data-name="Rettangolo arrotondato 1" class="cls-17" x="348" y="-44" width="10" height="2" rx="1" ry="1"/>
    </g>
    <g id="Language">
      <rect id="Divider" class="cls-18" x="400" y="-54" width="1" height="28"/>
      <rect id="Rettangolo_4" data-name="Rettangolo 4" class="cls-19" x="375" y="-24" width="79" height="116"/>
    </g>
  </g>
</svg>
